^C:\USERS\ZAKIR\SOURCE\REPOS\SUPERPROJECT13\MAIN.CPP|C:\USERS\ZAKIR\SOURCE\REPOS\SUPERPROJECT13\MATH.CPP
C:\USERS\ZAKIR\SOURCE\REPOS\SUPERPROJECT13\X64\DEBUG\VC143.PDB
C:\USERS\ZAKIR\SOURCE\REPOS\SUPERPROJECT13\X64\DEBUG\VC143.IDB
C:\USERS\ZAKIR\SOURCE\REPOS\SUPERPROJECT13\X64\DEBUG\MATH.OBJ
C:\USERS\ZAKIR\SOURCE\REPOS\SUPERPROJECT13\X64\DEBUG\MAIN.OBJ
^C:\USERS\ZAKIR\SOURCE\REPOS\SUPERPROJECT13\MATH.CPP
C:\USERS\ZAKIR\SOURCE\REPOS\SUPERPROJECT13\X64\DEBUG\VC143.PDB
^C:\USERS\ZAKIR\SOURCE\REPOS\SUPERPROJECT13\MAIN.CPP
C:\USERS\ZAKIR\SOURCE\REPOS\SUPERPROJECT13\X64\DEBUG\VC143.PDB
C:\USERS\ZAKIR\SOURCE\REPOS\SUPERPROJECT13\X64\DEBUG\VC143.IDB
C:\USERS\ZAKIR\SOURCE\REPOS\SUPERPROJECT13\X64\DEBUG\MAIN.OBJ
